%!PS-Adobe-2.0 EPSF-2.0
%%Title: ClassName
%%Creator: Doxygen
%%CreationDate: Time
%%For: 
%Magnification: 1.00
%%Orientation: Portrait
%%BoundingBox: 0 0 500 439.276
%%Pages: 0
%%BeginSetup
%%EndSetup
%%EndComments

% ----- variables -----

/boxwidth 0 def
/boxheight 40 def
/fontheight 24 def
/marginwidth 10 def
/distx 20 def
/disty 40 def
/boundaspect 1.13824 def  % aspect ratio of the BoundingBox (width/height)
/boundx 500 def
/boundy boundx boundaspect div def
/xspacing 0 def
/yspacing 0 def
/rows 17 def
/cols 6 def
/scalefactor 0 def
/boxfont /Times-Roman findfont fontheight scalefont def

% ----- procedures -----

/dotted { [1 4] 0 setdash } def
/dashed { [5] 0 setdash } def
/solid  { [] 0 setdash } def

/max % result = MAX(arg1,arg2)
{
  /a exch def
  /b exch def
  a b gt {a} {b} ifelse
} def

/xoffset % result = MAX(0,(scalefactor-(boxwidth*cols+distx*(cols-1)))/2)
{
  0 scalefactor boxwidth cols mul distx cols 1 sub mul add sub 2 div max
} def

/cw % boxwidth = MAX(boxwidth, stringwidth(arg1))
{
  /str exch def
  /boxwidth boxwidth str stringwidth pop max def
} def

/box % draws a box with text `arg1' at grid pos (arg2,arg3)
{ gsave
  2 setlinewidth
  newpath
  exch xspacing mul xoffset add
  exch yspacing mul
  moveto
  boxwidth 0 rlineto 
  0 boxheight rlineto 
  boxwidth neg 0 rlineto 
  0 boxheight neg rlineto 
  closepath
  dup stringwidth pop neg boxwidth add 2 div
  boxheight fontheight 2 div sub 2 div
  rmoveto show stroke
  grestore
} def  

/mark
{ newpath
  exch xspacing mul xoffset add boxwidth add
  exch yspacing mul
  moveto
  0 boxheight 4 div rlineto
  boxheight neg 4 div boxheight neg 4 div rlineto
  closepath
  eofill
  stroke
} def

/arrow
{ newpath
  moveto
  3 -8 rlineto
  -6 0 rlineto
  3 8 rlineto
  closepath
  eofill
  stroke
} def

/out % draws an output connector for the block at (arg1,arg2)
{
  newpath
  exch xspacing mul xoffset add boxwidth 2 div add
  exch yspacing mul boxheight add
  /y exch def
  /x exch def
  x y moveto
  0 disty 2 div rlineto 
  stroke
  1 eq { x y disty 2 div add arrow } if
} def

/in % draws an input connector for the block at (arg1,arg2)
{
  newpath
  exch xspacing mul xoffset add boxwidth 2 div add
  exch yspacing mul disty 2 div sub
  /y exch def
  /x exch def
  x y moveto
  0 disty 2 div rlineto
  stroke
  1 eq { x y disty 2 div add arrow } if
} def

/hedge
{
  exch xspacing mul xoffset add boxwidth 2 div add
  exch yspacing mul boxheight 2 div sub
  /y exch def
  /x exch def
  newpath
  x y moveto
  boxwidth 2 div distx add 0 rlineto
  stroke
  1 eq
  { newpath x boxwidth 2 div distx add add y moveto
    -8 3 rlineto
    0 -6 rlineto
    8 3 rlineto
    closepath
    eofill
    stroke
  } if
} def

/vedge
{
  /ye exch def
  /ys exch def
  /xs exch def
  newpath
  xs xspacing mul xoffset add boxwidth 2 div add dup
  ys yspacing mul boxheight 2 div sub
  moveto
  ye yspacing mul boxheight 2 div sub
  lineto
  stroke
} def

/conn % connections the blocks from col `arg1' to `arg2' of row `arg3'
{
  /ys exch def
  /xe exch def
  /xs exch def
  newpath
  xs xspacing mul xoffset add boxwidth 2 div add
  ys yspacing mul disty 2 div sub
  moveto
  xspacing xe xs sub mul 0
  rlineto
  stroke
} def

% ----- main ------

boxfont setfont
1 boundaspect scale
(Stage) cw
(BinaryChoiceStage) cw
(NoChoiceStage) cw
(PlayerChoiceStage) cw
(Ch2_Scene3) cw
(Ch3_Scene1) cw
(Ch4_Scene3) cw
(Ch1_Scene3) cw
(Ch1_Scene5) cw
(Ch3_Scene4) cw
(Ch1_Scene1) cw
(Ch1_Scene2) cw
(Ch1_Scene4) cw
(Ch2_Scene1) cw
(Ch2_Scene2) cw
(Ch2_Scene4) cw
(Ch3_Scene2) cw
(Ch3_Scene3) cw
(Ch4_Scene1) cw
(Ch4_Scene2) cw
(Ch4_Scene4) cw
(Prologue_Scene1) cw
(Prologue_Scene2) cw
(Prologue_Scene3) cw
(Prologue_Scene4) cw
/boxwidth boxwidth marginwidth 2 mul add def
/xspacing boxwidth distx add def
/yspacing boxheight disty add def
/scalefactor 
  boxwidth cols mul distx cols 1 sub mul add
  boxheight rows mul disty rows 1 sub mul add boundaspect mul 
  max def
boundx scalefactor div boundy scalefactor div scale

% ----- classes -----

 (Stage) 2 16 box
 (BinaryChoiceStage) 0 15 box
 (NoChoiceStage) 2 15 box
 (PlayerChoiceStage) 4 15 box
 (Ch2_Scene3) 1 14 box
 (Ch3_Scene1) 1 13 box
 (Ch4_Scene3) 1 12 box
 (Ch1_Scene3) 3 14 box
 (Ch1_Scene5) 3 13 box
 (Ch3_Scene4) 3 12 box
 (Ch1_Scene1) 5 14 box
 (Ch1_Scene2) 5 13 box
 (Ch1_Scene4) 5 12 box
 (Ch2_Scene1) 5 11 box
 (Ch2_Scene2) 5 10 box
 (Ch2_Scene4) 5 9 box
 (Ch3_Scene2) 5 8 box
 (Ch3_Scene3) 5 7 box
 (Ch4_Scene1) 5 6 box
 (Ch4_Scene2) 5 5 box
 (Ch4_Scene4) 5 4 box
 (Prologue_Scene1) 5 3 box
 (Prologue_Scene2) 5 2 box
 (Prologue_Scene3) 5 1 box
 (Prologue_Scene4) 5 0 box

% ----- relations -----

solid
1 2 15.25 out
solid
0 4 16 conn
solid
0 0 15.75 in
solid
1 0 14.25 out
solid
0 2 15.75 in
solid
1 2 14.25 out
solid
0 4 15.75 in
solid
1 4 14.25 out
solid
0 0 14.5 hedge
solid
0 0 13.5 hedge
solid
0 0 12.5 hedge
solid
0 15 12.5 vedge
solid
0 2 14.5 hedge
solid
0 2 13.5 hedge
solid
0 2 12.5 hedge
solid
2 15 12.5 vedge
solid
0 4 14.5 hedge
solid
0 4 13.5 hedge
solid
0 4 12.5 hedge
solid
0 4 11.5 hedge
solid
0 4 10.5 hedge
solid
0 4 9.5 hedge
solid
0 4 8.5 hedge
solid
0 4 7.5 hedge
solid
0 4 6.5 hedge
solid
0 4 5.5 hedge
solid
0 4 4.5 hedge
solid
0 4 3.5 hedge
solid
0 4 2.5 hedge
solid
0 4 1.5 hedge
solid
0 4 0.5 hedge
solid
4 15 0.5 vedge
